99994038672,292340,11977771220
03209297878,5103172,11977771220
34013952890,5167925,11977771220
06388154875,5261705,11977771220
12947219686,5262098,11977771220
10853409706,130577,11977771220
02120230714,144112,11977771220
90706129849,140457,11977771220
03556033739,147206,11977771220
22689720892,146782,11977771220
10551418800,155625,11977771220
09172581778,156573,11977771220
12365566740,167570,11977771220
30581161874,172581,11977771220
02090213736,178208,11977771220
01412786681,179574,11977771220
37209041800,183420,11977771220
35094404806,183656,11977771220
03025356405,194542,11977771220
02773343301,200710,11977771220
05858006698,224856,11977771220
00049010026,231970,11977771220
40804292825,243096,11977771220
22832399827,279609,11977771220
22354368895,282150,11977771220
06976643680,284417,11977771220
78582105800,5025943,11977771220
35370225818,5026469,11977771220
17257606811,5061169,11977771220
04004245923,5089839,11977771220
31252880880,5093835,11977771220
15169495870,5094713,11977771220
32922091880,5098154,11977771220
05721974893,5106701,11977771220
32144131805,5115218,11977771220
35301770837,5141128,11977771220
01317469879,5148740,11977771220
33483080899,5178955,11977771220
05951630924,5232637,11977771220
01944820906,5251544,11977771220
05781673792,5289380,11977771220
42383850802,5311864,11977771220
00560387121,5315764,11977771220
61663760497,5380172,11977771220
34833371804,5396115,11977771220
07600707845,5472098,11977771220
34337154833,5486752,11977771220
09209362888,5581043,11977771220
09169754950,5658403,11977771220
40611728320,6235124,11977771220
48977766869,6605315,11977771220
00060944145,6810969,11977771220
07924131728,6905036,11977771220
07049836648,6924213,11977771220
39989529850,7259568,11977771220
08800013643,7370510,11977771220
22559589885,7666936,11977771220
00859347206,7687248,11977771220
34500431888,7841403,11977771220
32939208883,7766879,11977771220
06478261433,7883472,11977771220
05820054857,7947488,11977771220
05756921621,7934612,11977771220
06037314900,8242207,11977771220
39649006052,8320970,11977771220
07110709892,100254,11977771220
24635607895,100305,11977771220
77225813900,100374,11977771220
12446230830,100378,11977771220
00538456175,100420,11977771220
10167484850,100541,11977771220
07375968721,100436,11977771220
25242870842,100558,11977771220
00276922301,100570,11977771220
67541046000,100582,11977771220
99255880144,100700,11977771220
03165578702,100792,11977771220
31133804802,100791,11977771220
11102207829,100857,11977771220
73853348653,104709,11977771220
28849748817,104798,11977771220
72276665149,109462,11977771220
26977223863,109863,11977771220
10043800700,110405,11977771220
10211813745,110984,11977771220
23387769504,111439,11977771220
06002396756,111437,11977771220
03722615747,111896,11977771220
81491875968,115046,11977771220
64224708868,115893,11977771220
10835872858,117672,11977771220
04906329470,118865,11977771220
00712961909,118927,11977771220
99988399120,119031,11977771220
08977337623,120130,11977771220
05727748852,125947,11977771220
64591697134,126634,11977771220
02980734985,128518,11977771220
21815434880,129732,11977771220
21741482852,131055,11977771220
05460915635,131845,11977771220
90013271091,132721,11977771220
15145686838,133305,11977771220
76572072215,135019,11977771220
96212560030,137814,11977771220
37324919863,137988,11977771220
12614723819,140154,11977771220
70517479320,145080,11977771220
01395767700,145909,11977771220
03141534977,152978,11977771220
09675516763,150556,11977771220
04075751899,152599,11977771220
10038885778,157168,11977771220
29869219810,162736,11977771220
00913002402,167412,11977771220
03981279999,174031,11977771220
50860895904,184041,11977771220
26090038890,186617,11977771220
03609896329,192066,11977771220
67719317068,200719,11977771220
22652765884,202004,11977771220
07687410769,208474,11977771220
65608135334,202939,11977771220
69224447872,203787,11977771220
39197333808,223950,11977771220
24833610809,230590,11977771220
91963907434,235471,11977771220
04071574330,240691,11977771220
70487263189,246165,11977771220
08674609627,246203,11977771220
09344732779,251836,11977771220
03540498605,256789,11977771220
03726426167,259886,11977771220
00911567003,257197,11977771220
10667777725,263312,11977771220
35869405807,264738,11977771220
31200793838,272233,11977771220
11015749763,277084,11977771220
12137735717,278709,11977771220
36959369835,278814,11977771220
22509478800,278860,11977771220
01178701026,294391,11977771220
22830802829,5016329,11977771220
01797763393,5005526,11977771220
24753501809,5030398,11977771220
87622211168,5034263,11977771220
34932869886,5036471,11977771220
22519727810,5050732,11977771220
28230111880,5058345,11977771220
36854394805,5075353,11977771220
07432456879,5071300,11977771220
35326125854,5087175,11977771220
02840576490,5089992,11977771220
26554456864,5095301,11977771220
40615156835,5116618,11977771220
10506172821,5118918,11977771220
06558094657,5119135,11977771220
40669347817,5121817,11977771220
43182219898,5139624,11977771220
30944311865,5128620,11977771220
81166281353,5140708,11977771220
34657140833,5146192,11977771220
08400068610,5146817,11977771220
07200050601,5158802,11977771220
00424245183,5161516,11977771220
10034032630,5162866,11977771220
01569146624,5169566,11977771220
10024607789,5167472,11977771220
08486987709,5172087,11977771220
28760409568,5194472,11977771220
75142856953,5199909,11977771220
01530161169,5203029,11977771220
02183538805,5210067,11977771220
04555493460,5221414,11977771220
10021535655,5230980,11977771220
36598858860,5225117,11977771220
33811737821,5237696,11977771220
44166000896,5246326,11977771220
10732495652,5269138,11977771220
35245480832,5266596,11977771220
36197008858,5269697,11977771220
35356409893,5271330,11977771220
12405521733,5280893,11977771220
01075761719,5310258,11977771220
72505516200,5321324,11977771220
10598331662,5321684,11977771220
41189201828,5325699,11977771220
44035070858,5335825,11977771220
25318649890,5343497,11977771220
02480154351,5362568,11977771220
00508958938,5374484,11977771220
09044092871,5383051,11977771220
02945879930,5401474,11977771220
06940740805,5405662,11977771220
02455031454,5412614,11977771220
13019982731,5419384,11977771220
00996468030,5434841,11977771220
27423721808,5439813,11977771220
05368656980,5451565,11977771220
04894015544,5491663,11977771220
31404728899,5499671,11977771220
35184536884,5510749,11977771220
99987287549,5527180,11977771220
07964136658,5531658,11977771220
00561194106,5562143,11977771220
84365765868,5624150,11977771220
04606915382,5650180,11977771220
36378295840,5671046,11977771220
22565569807,5690597,11977771220
99997568915,5705205,11977771220
06360274817,5714207,11977771220
12580290818,5717154,11977771220
04957376662,5795947,11977771220
41845408802,5803554,11977771220
22311141864,5804988,11977771220
48038113004,5851353,11977771220
04629899685,5852708,11977771220
58109293034,5888736,11977771220
64377024787,5858586,11977771220
07780377628,5911268,11977771220
00135717299,5917980,11977771220
08193742613,5918395,11977771220
02473776199,5938149,11977771220
02159016810,5946587,11977771220
23092231821,5955783,11977771220
36899880806,5988172,11977771220
28468662879,6046546,11977771220
39231259849,6006805,11977771220
32202081852,6049462,11977771220
91849438749,6049655,11977771220
23083689772,6050665,11977771220
40939098814,6055786,11977771220
00297377027,6158016,11977771220
06797592631,6172907,11977771220
11786177854,6183402,11977771220
33993137809,6212495,11977771220
10874948851,6220289,11977771220
16692510805,6248538,11977771220
40059283823,6252080,11977771220
10340193840,6266208,11977771220
30845666827,6278875,11977771220
01696168600,6285422,11977771220
66118328234,6312405,11977771220
75306808891,6313707,11977771220
01710043962,6409583,11977771220
22375215818,6417062,11977771220
11273295889,6425939,11977771220
07157123576,6465601,11977771220
04511095469,6479489,11977771220
06633604980,6483103,11977771220
01711137057,6486756,11977771220
28429995846,6514627,11977771220
99997967100,6495427,11977771220
11279626712,6514779,11977771220
40234446854,6539665,11977771220
11703243633,6573636,11977771220
12058348931,6562772,11977771220
03796911161,6575746,11977771220
53227131587,6577755,11977771220
10746814950,6585860,11977771220
48224116808,6599070,11977771220
05014855385,6599669,11977771220
06785683327,6606367,11977771220
10889503613,6610065,11977771220
04242098537,6619897,11977771220
09404135666,6622814,11977771220
45243393886,6623317,11977771220
21906930805,6623438,11977771220
42102823830,6623694,11977771220
99997401387,6668915,11977771220
41598641808,6630290,11977771220
06743729485,6673943,11977771220
35908199877,6696300,11977771220
37838924812,6727334,11977771220
07867696458,6746209,11977771220
10395113415,6799481,11977771220
60537094172,6802975,11977771220
27431572832,6838354,11977771220
06120649727,6817757,11977771220
11562711776,6838580,11977771220
05266031352,6846228,11977771220
09851618764,6853898,11977771220
40222609800,6871640,11977771220
38393552818,6874984,11977771220
13025114754,6887050,11977771220
29448524854,6934211,11977771220
25480788841,6956272,11977771220
40630386889,6974596,11977771220
22253681806,6987932,11977771220
08206188614,7005138,11977771220
03539961739,7009488,11977771220
14483804723,7014574,11977771220
04749552496,7021141,11977771220
05010510669,7067362,11977771220
08893125676,7077305,11977771220
10147681600,7081059,11977771220
36907601869,7093915,11977771220
04449632192,7096366,11977771220
00940310619,7102369,11977771220
99992434287,7099052,11977771220
00975727486,7139251,11977771220
28108673801,7145148,11977771220
31090725809,7155937,11977771220
36266389878,7160922,11977771220
64171949653,7173267,11977771220
00927887185,7186983,11977771220
08921358838,7198158,11977771220
02414785101,7212067,11977771220
08354310612,7219711,11977771220
39328598800,7233399,11977771220
36417730832,7254225,11977771220
26188111862,7272623,11977771220
06095335680,7286477,11977771220
43647380857,7280141,11977771220
07853474610,7291897,11977771220
01325128236,7296101,11977771220
07492237820,7298709,11977771220
21296311856,7311799,11977771220
04443014101,7321912,11977771220
11223377792,7341350,11977771220
18499287700,7350352,11977771220
00073584665,7361010,11977771220
38628416854,7386591,11977771220
35879583864,7398567,11977771220
36988834818,7409930,11977771220
41189538890,7427400,11977771220
06961749607,7440348,11977771220
50140731822,7440896,11977771220
10408838779,7501680,11977771220
31497014816,7520347,11977771220
04019034605,7563959,11977771220
04455261818,7565363,11977771220
42262788871,7583465,11977771220
15800110719,7565535,11977771220
39542695896,7594420,11977771220
32011092825,7607504,11977771220
21680823833,7633105,11977771220
02214581154,7624698,11977771220
01433168936,7620892,11977771220
40055145884,7647022,11977771220
35914145813,7675478,11977771220
85918423249,7667327,11977771220
70158306120,7663263,11977771220
72248815387,7693968,11977771220
13683350717,7694299,11977771220
26274859896,7678403,11977771220
34802123876,7749063,11977771220
27392428837,7762195,11977771220
49525115704,7756753,11977771220
08553864871,7766788,11977771220
29344744882,7769421,11977771220
60465980872,7770519,11977771220
08962043670,7776365,11977771220
25445533832,7781541,11977771220
27781289803,7798624,11977771220
07397164684,7804406,11977771220
37119488805,7804987,11977771220
36882678855,7820761,11977771220
13541236701,7820635,11977771220
70396108253,7839537,11977771220
11959173766,7852995,11977771220
08731892647,7845517,11977771220
07311918979,7866727,11977771220
11788346629,7878951,11977771220
03734675162,7881185,11977771220
00639479006,7885994,11977771220
28150765867,7888860,11977771220
83739076020,7895551,11977771220
30165333839,7906499,11977771220
11702885100,7899032,11977771220
03530581305,7919666,11977771220
41855842882,7923519,11977771220
18092252807,7925817,11977771220
07912526471,7925840,11977771220
08345106773,7934262,11977771220
05270699818,7939649,11977771220
48453896810,7939898,11977771220
47539612819,7941125,11977771220
11407721631,7945670,11977771220
08716734440,7942947,11977771220
05416042443,7948765,11977771220
38575294822,7951533,11977771220
87558769515,7952288,11977771220
22736432843,7952719,11977771220
67135234200,7952897,11977771220
44256443878,7953921,11977771220
25722622826,7957135,11977771220
06666278607,7955528,11977771220
04029529607,7957562,11977771220
03329703105,7958294,11977771220
22982984830,7961363,11977771220
48722410880,7972321,11977771220
14853955852,80008,11977771220
00007358415,8127677,11977771220
10252697480,8130905,11977771220
98777475020,82060,11977771220
07079180309,8303920,11977771220
70507743245,8306478,11977771220
04857401681,8307871,11977771220
46184333020,8316476,11977771220
92642176061,8316497,11977771220
77831045090,8320933,11977771220
02274811784,89528,11977771220
16557741829,92022,11977771220
07875286760,94284,11977771220
33772138802,92069,11977771220
17673069890,96304,11977771220
37985765808,162918,11977771220
24942454867,164944,11977771220
40299420833,171230,11977771220
03425910884,177150,11977771220
00629691100,182761,11977771220
00565855000,183093,11977771220
31135797838,185236,11977771220
27603857104,189072,11977771220
35235143809,189373,11977771220
04079107862,192077,11977771220
80625851900,192211,11977771220
04019745889,194621,11977771220
03944254805,205030,11977771220
37155523879,205045,11977771220
06526019870,205271,11977771220
17167535893,209000,11977771220
96028360082,209442,11977771220
02343758921,216657,11977771220
27366394807,217492,11977771220
12691614824,219531,11977771220
19991722807,223999,11977771220
01057932728,224444,11977771220
18041485987,224531,11977771220
22132160880,224915,11977771220
07317315818,225836,11977771220
82216088072,227948,11977771220
35900016404,236107,11977771220
01426706774,235962,11977771220
32331234850,238908,11977771220
00661466906,241123,11977771220
00988992108,244544,11977771220
56971800800,245320,11977771220
08096894803,247134,11977771220
04809712699,266944,11977771220
33857945877,269164,11977771220
32731932805,275747,11977771220
05586924609,276884,11977771220
83171401568,286029,11977771220
10124793746,5005216,11977771220
36039557818,5007287,11977771220
09995043718,5009456,11977771220
86482084834,5030504,11977771220
27648016885,5042631,11977771220
04552972740,5045491,11977771220
42112072889,5047544,11977771220
42151867811,5049112,11977771220
29367966873,5050156,11977771220
33785155468,5053318,11977771220
01028653883,5054756,11977771220
08309893906,5055044,11977771220
00269112057,5060944,11977771220
00596058047,5062845,11977771220
01609067681,5063113,11977771220
29720201894,5063514,11977771220
09298217854,5064337,11977771220
07956004969,5068004,11977771220
12448136726,5075359,11977771220
43994302811,5087576,11977771220
08461127609,5086162,11977771220
01930448031,5089624,11977771220
06712459966,5090774,11977771220
04195143845,5108062,11977771220
03596179645,5094642,11977771220
29773106810,5118025,11977771220
33428813804,5120994,11977771220
07868716797,5131220,11977771220
08726332680,5140787,11977771220
33424342874,5125317,11977771220
87472201987,5134210,11977771220
12509131796,5140973,11977771220
01385890037,5146412,11977771220
06191917678,5155384,11977771220
30358695880,5144058,11977771220
34491693862,5159286,11977771220
11144960738,5170166,11977771220
62592084053,5160021,11977771220
18206996842,5173689,11977771220
08255720618,5166192,11977771220
03185077148,5185301,11977771220
00265855020,5191175,11977771220
99989247587,5191975,11977771220
13346618714,5199570,11977771220
03667972636,5202911,11977771220
29401746877,5205261,11977771220
00264381190,5210420,11977771220
50433873604,5209972,11977771220
33932340809,5210524,11977771220
04701185809,5213577,11977771220
03778372963,5230003,11977771220
35862470875,5217576,11977771220
04585059350,5235291,11977771220
12125479850,5237567,11977771220
01833993748,5248765,11977771220
88794075115,5262262,11977771220
81501137204,5277630,11977771220
03238034073,5270430,11977771220
05627539402,5289801,11977771220
26832748825,5300976,11977771220
35924655890,5321006,11977771220
03304492062,5323781,11977771220
01142260089,5325188,11977771220
32556496843,5337517,11977771220
30380007878,5338230,11977771220
90766920682,5339587,11977771220
00765367424,5349750,11977771220
81716575834,5371988,11977771220
12520388609,5375357,11977771220
13256246672,5405093,11977771220
22386450805,5411851,11977771220
31527058832,5412716,11977771220
35264730725,5415342,11977771220
10208323716,5417634,11977771220
33936976848,5418521,11977771220
00339558830,5434089,11977771220
03493780613,5440915,11977771220
69611629753,5445361,11977771220
95312056804,5447129,11977771220
34278865813,5449364,11977771220
01470115662,5461967,11977771220
13361328764,5479436,11977771220
00999357590,5482916,11977771220
24393452100,5485645,11977771220
33269121881,5485788,11977771220
34906933882,5488419,11977771220
08746512632,5491058,11977771220
11137643846,5514955,11977771220
98449648068,5497275,11977771220
33145510886,5527487,11977771220
08149951601,5538464,11977771220
06794301644,5541413,11977771220
06343085483,5558036,11977771220
08621863669,5574801,11977771220
27332708850,5595357,11977771220
00872554309,5599597,11977771220
63596008204,5617040,11977771220
36248176809,5626078,11977771220
32760109844,5690961,11977771220
08939832680,5719436,11977771220
05418940481,5719633,11977771220
99992485000,5724445,11977771220
01737625903,5738315,11977771220
04133413997,5771014,11977771220
01670517330,5779802,11977771220
02325412563,5780440,11977771220
09137449648,5802144,11977771220
12786532795,5812994,11977771220
39325844818,5822021,11977771220
06752118914,5842064,11977771220
11940730775,5893133,11977771220
37346560876,5915281,11977771220
34759923888,5918968,11977771220
01445719860,5919056,11977771220
31085183807,6007204,11977771220
39725961897,6014209,11977771220
45005521895,6015822,11977771220
34650246806,6016275,11977771220
32345411830,6021164,11977771220
21262334802,6045991,11977771220
41880162806,6063967,11977771220
93492197191,6089160,11977771220
40129580899,6110588,11977771220
33561187811,6158369,11977771220
13950976906,6173671,11977771220
34629900802,6213464,11977771220
36700938856,6226509,11977771220
45053958807,6231604,11977771220
13488688720,6239304,11977771220
34691143823,6240773,11977771220
00190706325,6250876,11977771220
03849103943,6253199,11977771220
25835097808,6260493,11977771220
14921368830,6262823,11977771220
48491640991,6268808,11977771220
00624827933,6284894,11977771220
32778802819,6299262,11977771220
04726224638,6302231,11977771220
12563267714,6307028,11977771220
44179475898,6411833,11977771220
31558385827,6411858,11977771220
09665091611,6417746,11977771220
36428887800,6419899,11977771220
88889386053,6439884,11977771220
54856981749,6454235,11977771220
09329174965,6490873,11977771220
42185014838,6575203,11977771220
10700039724,6533166,11977771220
99997401115,6583312,11977771220
13418582788,6584524,11977771220
06617014928,6588205,11977771220
43973462836,6609532,11977771220
00869399470,6623513,11977771220
31997649837,6626169,11977771220
33997652821,6690656,11977771220
84896035291,6701207,11977771220
32659369453,6702311,11977771220
09655006670,6705916,11977771220
40184533880,6793459,11977771220
40261666860,6801034,11977771220
35102353802,6839370,11977771220
36348627772,6844860,11977771220
03954225077,6848065,11977771220
73178446168,6853084,11977771220
09241598719,6880058,11977771220
12902808780,6891408,11977771220
39246207840,6937308,11977771220
09965541736,6979475,11977771220
32180699808,6991185,11977771220
37951729850,7005686,11977771220
07135878655,7013063,11977771220
04636865600,7024263,11977771220
01520912625,7032893,11977771220
31941374840,7034800,11977771220
74898205291,7063063,11977771220
10698200675,7113015,11977771220
12087978409,7117576,11977771220
90791282953,7172117,11977771220
42613991801,7173351,11977771220
01357597819,7214586,11977771220
10438684613,7232006,11977771220
55184308253,7259603,11977771220
07022449961,7270164,11977771220
41344552862,7252442,11977771220
32575011884,7279534,11977771220
37315588825,7285675,11977771220
11109491387,7291387,11977771220
42944145886,7293764,11977771220
10696788721,7273108,11977771220
06221044545,7295448,11977771220
12846687706,7339881,11977771220
49257832899,7360747,11977771220
43309617840,7360940,11977771220
00886902371,7368542,11977771220
41782701842,7399800,11977771220
22173896881,7404224,11977771220
27634863807,7412663,11977771220
10329175637,7431965,11977771220
07733245427,7442136,11977771220
30335243894,7458715,11977771220
15005352813,7468402,11977771220
02497147108,7484411,11977771220
03018639111,7484698,11977771220
47273814865,7485418,11977771220
01565943660,7532066,11977771220
57471061200,7533976,11977771220
99992426268,7538513,11977771220
11747602493,7552852,11977771220
14494792780,7577650,11977771220
78171679404,7588444,11977771220
03543017640,7617379,11977771220
64024130897,7638356,11977771220
32795115859,7642242,11977771220
28593408826,7650596,11977771220
03339667594,7651846,11977771220
12743924896,7657826,11977771220
13014738638,7659807,11977771220
02790457514,7723666,11977771220
03107419982,7670451,11977771220
42080004816,7724058,11977771220
03600546686,7728413,11977771220
04784252959,7727508,11977771220
04253200656,7735801,11977771220
40731744870,7749103,11977771220
33272020870,7755558,11977771220
17263871866,7763367,11977771220
47562579504,7766996,11977771220
05087312837,7772363,11977771220
70858578549,7782647,11977771220
17067327750,7784966,11977771220
17959921822,7785822,11977771220
00799341967,7788191,11977771220
13966931818,7792911,11977771220
13766638807,7812702,11977771220
22387669878,7831233,11977771220
35074858852,7837226,11977771220
03123617424,7856019,11977771220
05826112530,7857463,11977771220
01846642922,7861398,11977771220
98069314591,7870486,11977771220
01472480600,7881599,11977771220
26723546857,7882546,11977771220
11468834711,7890513,11977771220
07189616411,7889526,11977771220
39914569900,7907919,11977771220
29500565803,7908193,11977771220
08551133918,7909149,11977771220
08084719700,7910241,11977771220
60003315339,7915023,11977771220
93896751891,7913316,11977771220
12083814908,7915837,11977771220
22629656845,7916307,11977771220
29477509850,7918774,11977771220
34630130888,7920050,11977771220
10754602710,8239169,11977771220
08611683641,8306114,11977771220
35842091534,8308674,11977771220
02506492097,8316546,11977771220
80220290920,113861,11977771220
83999094087,8321664,11977771220
07671585718,140426,11977771220
28617480874,149270,11977771220
10964213800,159487,11977771220
00144196026,167422,11977771220
37014808850,181978,11977771220
14710330743,193593,11977771220
27508967895,202003,11977771220
11042941769,244313,11977771220
06731553662,264480,11977771220
22851838873,277461,11977771220
41417490870,5030051,11977771220
23310842894,5036665,11977771220
09009313611,5040387,11977771220
40404463568,5086859,11977771220
73456403100,5127983,11977771220
05476946446,5164759,11977771220
32720127884,5164800,11977771220
11026123755,5211629,11977771220
05745693754,5287049,11977771220